45.57470457833565,25.55354898431979
45.586023709273306,25.55384281785859
45.571865969536645,25.554451468725997
45.57079905543345,25.55991809207141
45.57735899525472,25.555043664673455
45.58780372431225,25.556591441791234
45.58468403966376,25.55477045608513
45.58017362758266,25.551919087564077
45.57256573483825,25.55307646462529
45.57689951661614,25.554801685744845
45.57330303330532,25.552787102818545
45.56753208131795,25.564851002631332
45.58352362873762,25.55219042766346
45.581123835260755,25.549539261610597
45.57177104700882,25.554778545320943
45.578084788878506,25.550617588003515
45.58745949999993,25.547288499999965
45.56877909999997,25.567632699999994
45.57202170000005,25.554537100000015
45.56997449999998,25.559780699999987
